Modeling – Final Project: Modeling
…
fits3_parameters

# A tibble: 25 × 8
   cost_complexity tree_depth .metric     .estimator  mean     n std_err .config
             <dbl>      <int> <chr>       <chr>      <dbl> <int>   <dbl> <chr>  
 1    0.0000000001         11 mn_log_loss binary     0.352     5 0.00265 pre0_m…
 2    0.0000000178         11 mn_log_loss binary     0.352     5 0.00265 pre0_m…
 3    0.00000316           11 mn_log_loss binary     0.352     5 0.00265 pre0_m…
 4    0.0000000001         15 mn_log_loss binary     0.352     5 0.00249 pre0_m…
 5    0.0000000178         15 mn_log_loss binary     0.352     5 0.00249 pre0_m…
 6    0.00000316           15 mn_log_loss binary     0.352     5 0.00249 pre0_m…
 7    0.0000000001          8 mn_log_loss binary     0.356     5 0.00187 pre0_m…
 8    0.0000000178          8 mn_log_loss binary     0.356     5 0.00187 pre0_m…
 9    0.00000316            8 mn_log_loss binary     0.356     5 0.00187 pre0_m…
10    0.000562             15 mn_log_loss binary     0.386     5 0.0112  pre0_m…
# ℹ 15 more rows
…
